{
	"id": "bd0aee90-52ab-4245-8cb7-ac0c97ec519b",
	"name": "HrucaseAPI",
	"values": [
		{
			"key": "protocol",
			"value": "http://",
			"enabled": true
		},
		{
			"key": "admin-domain",
			"value": "api.hruc.loc:81/admin",
			"enabled": true
		},
		{
			"key": "token",
			"value": "eyJ0eXAiOiJKV1QiLCJhbGciOiJIUzI1NiJ9.eyJpc3MiOiJodHRwOlwvXC9hcGkuaHJ1Yy5sb2M6ODFcL2F1dGhcL3JlZnJlc2giLCJpYXQiOjE1ODUzNDExODMsImV4cCI6MTU4NTM0NDc4OSwibmJmIjoxNTg1MzQxMTg5LCJqdGkiOiJSaG1RTVRWakRETWJHaVliIiwic3ViIjoiZjg2MTFmYjEtY2I5Ni00OGFhLTk2ZTAtZjUxMjg2ODQyYjBiIiwicHJ2IjoiNDFlZmI3YmFkN2Y2ZjYzMmUyNDA1YmQzYTc5M2I4YTZiZGVjNjc3NyJ9.hMCLplU_F0hIO50T3UpTrjx0Vo1ep0YJGsyh4Pa2qkU",
			"enabled": true
		},
		{
			"key": "client-domain",
			"value": "api.hruc.loc:81",
			"enabled": true
		},
		{
			"key": "camera_id",
			"value": "41",
			"enabled": true
		},
		{
			"key": "lens_id",
			"value": "1",
			"enabled": true
		},
		{
			"key": "material_id",
			"value": "1",
			"enabled": true
		},
		{
			"key": "category_id",
			"value": "1",
			"enabled": true
		},
		{
			"key": "product_id",
			"value": "1",
			"enabled": true
		},
		{
			"key": "order_id",
			"value": "143892df-1b0f-42b9-8a64-c66f827b7ebf",
			"enabled": true
		},
		{
			"key": "order_item_id",
			"value": "1",
			"enabled": true
		},
		{
			"key": "product_image_id",
			"value": "",
			"enabled": true
		},
		{
			"key": "user_id",
			"value": "f8611fb1-cb96-48aa-96e0-f51286842b0b",
			"enabled": true
		},
		{
			"key": "reset_password_token",
			"value": "a1b35a1e271989388e5466e90cc8aa0fe0d30ea5c5b8d4efa26795e60142f8b9",
			"enabled": true
		}
	],
	"_postman_variable_scope": "environment",
	"_postman_exported_at": "2020-03-27T20:34:35.712Z",
	"_postman_exported_using": "Postman/7.21.0"
}